Vesalius: Quick Start • vesalius
…
vesalius

## Registered S3 method overwritten by 'cli':
##   method     from         
##   print.boxx spatstat.geom

## # A tibble: 1,114,014 × 8
##    barcodes           x     y    cc value  tile cluster territory
##    <chr>          <dbl> <dbl> <int> <dbl> <dbl>   <dbl> <chr>    
##  1 AAGCAGTATGCGAT   146     1     1 0.865     0       3 1        
##  2 AACGCTTAGAATCT   146     1     1 0.865     0       3 1        
##  3 AGCTGTTGAGCTCC   146     1     1 0.865     0       3 1        
##  4 AACGCTTAGAATCT   146     2     1 0.865     0       3 1        
##  5 AACGCTTAGAATCT   146     3     1 0.865     0       3 1        
##  6 AAGCAGTATGCGAT   147     3     1 0.865     0       3 1        
##  7 AGCTGTTGAGCTCC   147     3     1 0.865     0       3 1        
##  8 GACGTATATCTGCA   516     3     1 0.523     0       4 2        
##  9 GATAATGGTCACCC   516     3     1 0.523     0       4 2        
## 10 AACGCTTAGAATCT   146     4     1 0.865     0       3 1        
## # … with 1,114,004 more rows
…
